module gitlab.com/tmidy/microservice-cache

go 1.21.4

require github.com/rs/zerolog v1.31.0

require (
	github.com/bsm/redislock v0.9.4 // indirect
	github.com/bytedance/sonic v1.9.1 // indirect
	github.com/cenkalti/backoff/v4 v4.2.1 // indirect
	github.com/chenzhuoyu/base64x v0.0.0-20221115062448-fe3a3abad311 // indirect
	github.com/felixge/httpsnoop v1.0.4 // indirect
	github.com/gabriel-vasile/mimetype v1.4.2 // indirect
	github.com/gin-contrib/sse v0.1.0 // indirect
	github.com/go-logr/logr v1.3.0 // indirect
	github.com/go-logr/stdr v1.2.2 // indirect
	github.com/go-playground/locales v0.14.1 // indirect
	github.com/go-playground/universal-translator v0.18.1 // indirect
	github.com/go-playground/validator/v10 v10.14.0 // indirect
	github.com/goccy/go-json v0.10.2 // indirect
	github.com/golang/protobuf v1.5.3 // indirect
	github.com/grpc-ecosystem/grpc-gateway/v2 v2.16.0 // indirect
	github.com/json-iterator/go v1.1.12 // indirect
	github.com/klauspost/cpuid/v2 v2.2.4 // indirect
	github.com/leodido/go-urn v1.2.4 // indirect
	github.com/modern-go/concurrent v0.0.0-20180306012644-bacd9c7ef1dd // indirect
	github.com/modern-go/reflect2 v1.0.2 // indirect
	github.com/pelletier/go-toml/v2 v2.0.8 // indirect
	github.com/redis/go-redis/extra/rediscmd/v9 v9.0.5 // indirect
	github.com/redis/go-redis/extra/redisotel/v9 v9.0.5 // indirect
	github.com/twitchyliquid64/golang-asm v0.15.1 // indirect
	github.com/ugorji/go/codec v1.2.11 // indirect
	go.opentelemetry.io/contrib/instrumentation/github.com/gin-gonic/gin/otelgin v0.46.1 // indirect
	go.opentelemetry.io/contrib/instrumentation/net/http/otelhttp v0.46.1 // indirect
	go.opentelemetry.io/otel v1.21.0 // indirect
	go.opentelemetry.io/otel/exporters/otlp/otlptrace v1.21.0 // indirect
	go.opentelemetry.io/otel/exporters/otlp/otlptrace/otlptracehttp v1.21.0 // indirect
	go.opentelemetry.io/otel/exporters/stdout/stdoutmetric v0.44.0 // indirect
	go.opentelemetry.io/otel/exporters/stdout/stdouttrace v1.21.0 // indirect
	go.opentelemetry.io/otel/metric v1.21.0 // indirect
	go.opentelemetry.io/otel/sdk v1.21.0 // indirect
	go.opentelemetry.io/otel/sdk/metric v1.21.0 // indirect
	go.opentelemetry.io/otel/trace v1.21.0 // indirect
	go.opentelemetry.io/proto/otlp v1.0.0 // indirect
	golang.org/x/arch v0.3.0 // indirect
	golang.org/x/crypto v0.15.0 // indirect
	golang.org/x/net v0.18.0 // indirect
	golang.org/x/text v0.14.0 // indirect
	google.golang.org/genproto/googleapis/api v0.0.0-20230822172742-b8732ec3820d // indirect
	google.golang.org/genproto/googleapis/rpc v0.0.0-20230822172742-b8732ec3820d // indirect
	google.golang.org/grpc v1.59.0 // indirect
	google.golang.org/protobuf v1.31.0 // indirect
	gopkg.in/yaml.v3 v3.0.1 // indirect
)

require (
	github.com/cespare/xxhash/v2 v2.2.0 // indirect
	github.com/dgryski/go-rendezvous v0.0.0-20200823014737-9f7001d12a5f // indirect
	github.com/gin-gonic/gin v1.9.1
	github.com/google/uuid v1.5.0
	github.com/mattn/go-colorable v0.1.13 // indirect
	github.com/mattn/go-isatty v0.0.19 // indirect
	github.com/redis/go-redis/v9 v9.3.1 // indirect
	go.opentelemetry.io/otel/exporters/jaeger v1.17.0
	golang.org/x/sync v0.5.0
	golang.org/x/sys v0.14.0 // indirect
)
